<svg width="281" height="50" viewBox="0 0 281 50" fill="none" xmlns="http://www.w3.org/2000/svg">
<g clip-path="url(#clip0)">
<path d="M32.3633 15.0234H25.4211V42.4075H44.1999V36.4785H32.3633V15.0234Z" fill="#231F20"/>
<path d="M58.384 15.0234H49.1444V42.4578H59.0332C64.7767 42.4578 68.2728 39.5435 69.5214 38.2874C71.9686 35.8253 73.0673 32.8105 73.0673 28.7909C73.0673 24.6204 71.7688 21.2539 69.2716 18.7919C66.5747 16.2293 63.0287 15.0234 58.384 15.0234ZM63.628 34.5189C61.8301 36.2775 59.4328 36.5287 57.5849 36.5287H56.0866V20.9525H57.8845C59.7824 20.9525 61.9299 21.1535 63.628 22.7111C64.9765 24.0175 65.7756 26.2283 65.7756 28.7909C65.7756 31.8056 64.6269 33.5642 63.628 34.5189Z" fill="#231F20"/>
<path d="M101.585 18.591C98.988 16.0284 95.1423 14.5713 91.1469 14.5713C87.1014 14.5713 83.3057 16.0284 80.7087 18.591C78.0617 21.1535 76.5634 24.8717 76.5634 28.7407C76.5634 32.5594 78.0617 36.2776 80.7087 38.8401C83.3057 41.4027 87.1514 42.8598 91.1469 42.8598C95.1923 42.8598 98.988 41.4027 101.585 38.8401C104.232 36.2273 105.73 32.5594 105.73 28.7407C105.73 24.8717 104.232 21.1535 101.585 18.591ZM96.5408 34.0668C95.1423 35.4737 93.3444 36.2273 91.1469 36.2273C89.0492 36.2273 87.1514 35.4736 85.703 34.0165C84.7041 33.0618 83.5554 31.4037 83.5554 28.8914C83.5554 26.7811 84.3545 24.8215 85.703 23.4648C87.0515 22.058 89.0492 21.254 91.1469 21.254C93.0947 21.254 95.1423 22.058 96.5408 23.4648C97.9392 24.8215 98.7383 26.7811 98.7383 28.7407C98.6883 30.7003 97.8892 32.6599 96.5408 34.0668Z" fill="#231F20"/>
<path d="M219.252 18.591C216.655 16.0284 212.809 14.5713 208.814 14.5713C204.768 14.5713 200.973 16.0284 198.376 18.591C195.729 21.1535 194.23 24.8717 194.23 28.7407C194.23 32.5594 195.729 36.2776 198.376 38.8401C200.973 41.4027 204.818 42.8598 208.814 42.8598C212.859 42.8598 216.655 41.4027 219.252 38.8401C221.899 36.2273 223.397 32.5594 223.397 28.7407C223.447 24.8717 221.899 21.1535 219.252 18.591ZM214.208 34.0668C212.809 35.4737 211.011 36.2273 208.814 36.2273C206.716 36.2273 204.818 35.4736 203.37 34.0165C202.371 33.0618 201.222 31.4037 201.222 28.8914C201.222 26.7811 202.021 24.8215 203.37 23.4648C204.718 22.058 206.716 21.254 208.814 21.254C210.762 21.254 212.809 22.058 214.208 23.4648C215.606 24.8215 216.405 26.7811 216.405 28.7407C216.405 30.7003 215.606 32.6599 214.208 34.0668Z" fill="#231F20"/>
<path d="M187.388 38.2874C189.785 35.8253 190.934 32.8105 190.934 28.7909C190.934 24.6204 189.636 21.2539 187.138 18.7919C184.491 16.2293 180.995 15.0234 176.301 15.0234H167.061V42.4578H176.95C182.643 42.4075 186.139 39.4933 187.388 38.2874ZM174.003 36.4785V20.9022H175.801C177.699 20.9022 179.847 21.1032 181.545 22.6608C182.943 23.9672 183.692 26.1781 183.692 28.7406C183.692 31.8056 182.544 33.514 181.595 34.4687C179.797 36.2273 177.399 36.4785 175.551 36.4785H174.003Z" fill="#231F20"/>
<path d="M145.635 15.0234L135.197 42.4578H142.539L144.387 37.8351L144.636 37.1819C146.185 37.6342 147.783 37.8351 149.431 37.8351C151.079 37.8351 152.677 37.6342 154.226 37.1819L154.475 37.8351L156.173 42.4578H163.565L153.327 15.0234H145.635ZM152.378 31.7554C151.429 32.0066 150.43 32.1071 149.431 32.1071C148.432 32.1071 147.483 32.0066 146.534 31.7554L149.381 23.2135L152.378 31.7554Z" fill="#231F20"/>
<path d="M127.306 31.3534C128.505 30.6499 129.504 29.4943 130.153 28.1376C130.752 26.8815 131.102 25.4243 131.102 23.9169C131.102 22.8618 130.952 21.8066 130.702 20.9022C130.003 18.4401 128.355 16.5308 126.007 15.6263C124.759 15.1239 123.311 14.9731 120.614 14.9731H109.876V20.9022V28.1376V42.4075H116.568V33.6647C116.568 33.6647 118.466 33.8154 119.165 33.8154C119.765 33.8154 120.414 33.7652 121.013 33.7149L125.958 42.4075H133.399L126.906 31.6548C127.056 31.5543 127.156 31.4539 127.306 31.3534ZM124.309 24.4194C124.309 25.8263 123.71 26.8815 122.761 27.4342C121.612 28.0874 120.414 28.1879 119.165 28.1879C118.266 28.1879 117.417 28.0371 116.568 27.7859V20.9022H119.565C119.864 20.9022 121.612 20.9022 122.511 21.2539C123.66 21.7564 124.309 22.6608 124.309 24.4194Z" fill="#231F20"/>
<path d="M0 42.4075H18.7788V36.4785H6.94215V31.6046H18.3293V25.6756H6.94215V20.9022H18.7788V15.0234H0V42.4075Z" fill="#231F20"/>
<path d="M275.388 7.03442H230.389V10.5516H275.388V7.03442Z" fill="#231F20"/>
<path d="M273.541 46.9299H230.389V50.4472H273.541V46.9299Z" fill="#231F20"/>
<path d="M273.59 6.38135H270.094V50.4472H273.59V6.38135Z" fill="#231F20"/>
<path d="M233.885 7.03442H230.389V50.4973H233.885V7.03442Z" fill="#231F20"/>
<path d="M273.59 0H270.094V11.7073H273.59V0Z" fill="#231F20"/>
<path d="M280.533 7.03442H268.346V10.5516H280.533V7.03442Z" fill="#231F20"/>
<path d="M260.356 21.8572H256.56L251.316 35.5744H255.012L255.911 33.263L256.01 32.9113C256.81 33.1123 257.559 33.263 258.408 33.263C259.207 33.263 260.006 33.1625 260.805 32.9616L260.905 33.3133L261.754 35.6246H265.45L260.356 21.8572ZM258.408 30.399C257.908 30.399 257.459 30.3488 256.959 30.2483L258.408 25.9774L259.856 30.2483C259.407 30.3488 258.907 30.399 258.408 30.399Z" fill="#231F20"/>
<path d="M246.521 21.8577V29.5956V30.299C246.521 31.5049 245.622 32.5098 244.474 32.5601C244.424 32.5601 244.324 32.5601 244.274 32.5601C244.224 32.5601 244.124 32.5601 244.074 32.5601C242.925 32.4596 242.026 31.4547 242.026 30.299L241.976 29.4448V21.8577H238.48V29.3946V29.696C238.48 32.1581 239.729 33.6655 240.228 34.1679C241.277 35.2231 242.526 35.6753 244.224 35.6753C245.922 35.6753 247.22 35.1729 248.219 34.1679C248.719 33.6152 249.967 32.1581 249.967 29.696V29.4951V21.8577H246.521Z" fill="#231F20"/>
</g>
<defs>
<clipPath id="clip0">
<path d="M0 0H281V50H0V0Z" fill="white"/>
</clipPath>
</defs>
</svg>
